[gd_scene load_steps=3 format=1]

[ext_resource path="res://sprites/ballGrey_10.png" type="Texture" id=1]

[sub_resource type="CircleShape2D" id=1]

custom_solver_bias = 0.0
radius = 15.0

[node name="ball" type="RigidBody2D"]

input/pickable = false
shapes/0/shape = SubResource( 1 )
shapes/0/transform = Matrix32( 1, 0, 0, 1, 0, 0 )
shapes/0/trigger = false
collision/layers = 1
collision/mask = 1
mode = 0
mass = 1.0
friction = 0.0
bounce = 1.0
gravity_scale = 1.0
custom_integrator = false
continuous_cd = 0
contacts_reported = 2
contact_monitor = true
sleeping = false
can_sleep = true
velocity/linear = Vector2( 0, 0 )
velocity/angular = 0.0
damp_override/linear = 0.0
damp_override/angular = 0.0
__meta__ = {
"_edit_group_": true
}

[node name="sprite" type="Sprite" parent="."]

transform/scale = Vector2( 0.2, 0.2 )
texture = ExtResource( 1 )

[node name="collisionshape2d" type="CollisionShape2D" parent="."]

shape = SubResource( 1 )
trigger = false
_update_shape_index = 0


