[gd_scene load_steps=4 format=1]

[ext_resource path="res://scripts/paddle.gd" type="Script" id=1]
[ext_resource path="res://sprites/paddle_01.png" type="Texture" id=2]

[sub_resource type="CapsuleShape2D" id=1]

custom_solver_bias = 0.0
radius = 14.0
height = 76.0

[node name="paddle" type="KinematicBody2D"]

input/pickable = false
shapes/0/shape = SubResource( 1 )
shapes/0/transform = Matrix32( -4.37114e-08, -1, 1, -4.37114e-08, 0, 0 )
shapes/0/trigger = false
collision/layers = 1
collision/mask = 1
collision/margin = 0.08
script/script = ExtResource( 1 )
__meta__ = {
"_edit_group_": true
}

[node name="sprite" type="Sprite" parent="."]

transform/scale = Vector2( 0.2, 0.2 )
texture = ExtResource( 2 )

[node name="collisionshape2d" type="CollisionShape2D" parent="."]

transform/rot = 90.0
shape = SubResource( 1 )
trigger = false
_update_shape_index = 0


